%YAML 1.1
%TAG !u! tag:unity3d.com,2011:
--- !u!114 &11400000
MonoBehaviour:
  m_ObjectHideFlags: 0
  m_PrefabParentObject: {fileID: 0}
  m_PrefabInternal: {fileID: 0}
  m_GameObject: {fileID: 0}
  m_Enabled: 1
  m_EditorHideFlags: 0
  m_Script: {fileID: 11500000, guid: 093286084a3d1994a9c28281a1c38b1d, type: 3}
  m_Name: PlayFabSharedSettings
  m_EditorClassIdentifier: 
  TitleId: E0EB
  ProductionEnvironmentUrl: https://e0eb.playfabapi.com/
  RequestType: 0
  RequestTimeout: 2000
  RequestKeepAlive: 1
  CompressApiData: 0
  LogLevel: 1
  LoggerHost: 
  LoggerPort: 0
  EnableRealTimeLogging: 1
  LogCapLimit: 30
